<?xml version="1.0" encoding="utf-8"?>
<!-- Generator: Adobe Illustrator 19.1.0, SVG Export Plug-In . SVG Version: 6.00 Build 0)  -->
<svg version="1.1" id="Layer_1" xmlns="http://www.w3.org/2000/svg" xmlns:xlink="http://www.w3.org/1999/xlink" x="0px" y="0px"
	 viewBox="-116 132.3 54.3 24.7" style="enable-background:new -116 132.3 54.3 24.7;" xml:space="preserve">
<style type="text/css">
	.st0{fill:#26A003;}
	.st1{fill:#287339;}
</style>
<path class="st0" d="M-96.7,156.8h7.5v-6.6c0-0.3,0.2-0.5,0.5-0.5h5.4c0.3,0,0.5,0.2,0.5,0.5v6.6h3.4c0-1.4,0.8-2.6,2.1-3.1
	c0.2-1.2,1-2.3,2.1-2.9v-0.1c0-1.5,1.2-2.8,2.7-2.9v-4v-2.5c0-0.8-0.6-1.9-1.3-2.3l-1.7-1v-4.3h-3.2v2.4l-5.8-3.4
	c-0.7-0.4-1.9-0.4-2.7,0l-10.8,6.1c-0.7,0.4-1.3,1.5-1.4,2.3v2.4l-0.1,10.5C-99.5,155.5-98.3,156.8-96.7,156.8z"/>
<path class="st0" d="M-61.9,156.8c-0.2-1.4-1.2-2.4-2.5-2.4c0-1.1-0.9-1.9-1.9-1.9c-0.2,0-0.3,0-0.5,0.1v-0.1c0-1.6-1.3-2.8-2.8-2.8
	c-0.4,0-0.8,0.1-1.1,0.2c-0.3-0.6-1-1-1.7-1c-1.1,0-1.9,0.9-1.9,1.9c0,0.3,0.1,0.5,0.2,0.8c-1.3,0.3-2.3,1.4-2.3,2.8
	c0,0.1,0,0.1,0,0.2c-1.1,0.2-2,1.1-2.1,2.2H-61.9z"/>
<g>
	<path class="st0" d="M-100.9,146.3c0.1,0.2,0.3,0.3,0.5,0.4v-3.1v-2.5l0,0v-0.1c0.1-1,0.9-2.5,1.9-3l0.7-0.4
		c-0.1-1-0.9-1.7-1.8-1.7c-0.3,0-0.7,0.1-0.9,0.3l0,0c0-1.1-0.8-2-1.9-2.2c-0.2-0.9-0.9-1.5-1.8-1.5c-0.9,0-1.7,0.7-1.8,1.5
		c-1.1,0.1-1.9,1-1.9,2.1l0,0c-0.2-0.1-0.6-0.2-0.9-0.2c-1,0-1.8,0.8-1.8,1.8c-0.3-0.3-0.7-0.4-1.1-0.4c-1.2,0-2.2,1-2.2,2.2l0,0
		c-0.1,0-0.2,0-0.3,0c-1,0-1.8,0.8-1.8,1.8c0,1,0.8,1.8,1.8,1.8c0.2,0,0.5,0,0.7-0.1c0.1,1.1,1,1.9,2.2,1.9c0.2,0,0.5,0,0.7-0.1
		c0,0.1,0,0.1,0,0.2c0,1,0.8,1.8,1.8,1.8c0.1,0,0.2,0,0.3,0c0.1,0.5,0.4,1,0.8,1.5c0.5,0.6,1.3,0.9,2.2,1.1l-0.5,7.4h3.6l-0.3-5.1
		l1.3-0.7c0.2-0.1,0.3-0.4,0.2-0.7c-0.1-0.2-0.4-0.3-0.7-0.2l-0.9,0.5l-0.3-3.4c0.1,0,0.2,0,0.3,0
		C-102,147.2-101.3,146.8-100.9,146.3z M-105.3,148.4c-0.6-0.1-1.1-0.4-1.5-0.8c-0.5-0.5-0.6-1-0.6-1.3c0,0,0,0,0.1-0.1
		c0.4,0.6,1,0.9,1.8,0.9c0.1,0,0.2,0,0.3,0L-105.3,148.4z"/>
</g>
<path class="st1" d="M-91.1,142.3h-4.1c-0.3,0-0.5,0.2-0.5,0.5v4.1c0,0.3,0.2,0.5,0.5,0.5h4.1c0.3,0,0.5-0.2,0.5-0.5v-4.1
	C-90.6,142.5-90.8,142.3-91.1,142.3z"/>
<circle class="st0" cx="-84.1" cy="153.4" r="0.5"/>
<polygon class="st0" points="-89.8,144.6 -92.9,144.6 -92.9,141.6 -93.4,141.6 -93.4,144.6 -96.4,144.6 -96.4,145.1 -93.4,145.1 
	-93.4,148 -92.9,148 -92.9,145.1 -89.8,145.1 "/>
<path class="st1" d="M-68.5,153.1H-69c0-0.8-0.6-1.4-1.4-1.4v-0.5C-69.3,151.2-68.5,152-68.5,153.1z"/>
<path class="st1" d="M-101.8,137.5h-0.5c0-0.8-0.6-1.4-1.4-1.4v-0.5C-102.6,135.6-101.8,136.4-101.8,137.5z"/>
<path class="st1" d="M-74.2,154.9h-0.5c0-1.1,0.9-1.9,1.9-1.9v0.5C-73.6,153.5-74.2,154.1-74.2,154.9z"/>
<path class="st1" d="M-111.8,139.9h-0.5c0-0.8,0.6-1.4,1.4-1.4v0.5C-111.4,139-111.8,139.4-111.8,139.9z"/>
<path class="st1" d="M-107.5,141.2h-0.5c0-0.8,0.6-1.4,1.4-1.4v0.5C-107.1,140.3-107.5,140.7-107.5,141.2z"/>
<path class="st1" d="M-107.9,145.3c-0.8,0-1.4-0.6-1.4-1.4h0.5c0,0.5,0.4,0.9,0.9,0.9V145.3z"/>
<path class="st1" d="M-100.4,143c-0.3,0.3-0.6,0.4-1,0.4v0.5c0.4,0,0.7-0.1,1-0.3V143z"/>
<path class="st1" d="M-63.4,156.8c-0.3-0.5-1-1-1.6-1v0.5c0.3,0.1,0.7,0.3,1,0.5H-63.4z"/>
</svg>
